PLAN372 - Exploratory Data Analysis
…
total_entries$year = year(total_entries$date)

Make sure it worked

unique(total_entries$year)
## [1] 2012 2013 2011

Now, look at mean entries by garage and year

group_by(total_entries, facility, year) |>
  summarize(entries=mean(entries))
## `summarise()` has grouped output by 'facility'. You can override using the
## `.groups` argument.
## # A tibble: 39 × 3
## # Groups:   facility [13]
##    facility                  year entries
##    <chr>                    <dbl>   <dbl>
##  1 16th and Hoff Garage      2011    129.
##  2 16th and Hoff Garage      2012    162.
##  3 16th and Hoff Garage      2013    166.
##  4 Civic Center Garage       2011    925.
##  5 Civic Center Garage       2012    977.
##  6 Civic Center Garage       2013   1191.
##  7 Ellis OFarrell Garage     2011   1736.
##  8 Ellis OFarrell Garage     2012   1659.
##  9 Ellis OFarrell Garage     2013   1616.
## 10 Fifth and Mission Garage  2011   4324.
## # … with 29 more rows
…
