PLAN372 - Fundamentals of data visualization
…
Comparing distribution across zip codes

Another alternative is Violin plots that combine the advantages of histogram and box plots.

df2 <- df |> 
  filter(year == 2020) |> 
  filter(zip_code == c(60611, 60610))

df2

# A tibble: 104 × 12
    year     id prop_name zip_c…¹ prima…²   area built…³ energ…⁴ elect…⁵ nat_g…⁶
   <dbl>  <dbl> <chr>     <chr>   <chr>    <dbl>   <dbl>   <dbl>   <dbl>   <dbl>
 1  2020 160208 The Jame… 60611   Hotel   7.2 e4    2000      26  7.09e6  6.56e6
 2  2020 237384 Maple To… 60610   Multif… 1.35e5    2005      70  4.40e6  8.69e5
 3  2020 252031 57135-Ch… 60611   Hotel   1.77e5    1987      71  5.52e6  1.26e7
 4  2020 103816 AMA Plaza 60611   Office  1.88e6    1971      75  8.50e7  4.18e7
 5  2020 105697 Dearborn… 60610   Multif… 7.92e4    1929      89  1.35e6  7.40e6
 6  2020 227382 Drake To… 60611   Multif… 2.76e5    1928      19  4.44e6  3.79e5
 7  2020 243913 990 Nort… 60611   Multif… 3.31e5    1973      12  1.27e7  9.72e6
 8  2020 173642 230 E Oh… 60611   Office  7.53e4    1917      51  3.12e6  3.13e6
 9  2020 256655 The Oliv… 60610   Multif… 9.14e4    1924     100  1.93e6  3.31e6
10  2020 244017 River Pl… 60611   Multif… 8.93e5    1976      36  1.94e7  4.78e7
# … with 94 more rows, 2 more variables: lat <dbl>, long <dbl>, and abbreviated
#   variable names ¹​zip_code, ²​primary_property_type, ³​built_year,
#   ⁴​energy_star_score, ⁵​electricity_use, ⁶​nat_gas_use
…
